Exporing New Mexico Demographics with TidyCensus – biscotty’s Workshop
…
Getting data from the 2019-2023 5-year ACS

immigration_us

Simple feature collection with 104 features and 5 fields
Geometry type: MULTIPOLYGON
Dimension:     XY
Bounding box:  xmin: -179.2311 ymin: 17.83151 xmax: 179.8597 ymax: 71.43979
Geodetic CRS:  NAD83
# A tibble: 104 × 6
   variable    estimate   moe state      summary_est                    geometry
   <chr>          <dbl> <dbl> <chr>            <dbl>          <MULTIPOLYGON [°]>
 1 Native       4862214  3595 Alabama        5054253 (((-85.4883 30.99706, -85.…
 2 ForeignBorn   192039  3595 Alabama        5054253 (((-85.4883 30.99706, -85.…
 3 Native        676840  2060 Alaska          733971 (((-179.2302 51.28393, -17…
 4 ForeignBorn    57131  2060 Alaska          733971 (((-179.2302 51.28393, -17…
 5 Native       6332589  8543 Arizona        7268175 (((-110.7507 37.00301, -11…
 6 ForeignBorn   935586  8543 Arizona        7268175 (((-110.7507 37.00301, -11…
 7 Native       2874432  3320 Arkansas       3032651 (((-90.95577 34.11871, -90…
 8 ForeignBorn   158219  3321 Arkansas       3032651 (((-90.95577 34.11871, -90…
 9 Native      28763259 34684 California    39242785 (((-116.1062 32.61848, -11…
10 ForeignBorn 10479526 34684 California    39242785 (((-116.1062 32.61848, -11…
# ℹ 94 more rows
…
Getting data from the 2019-2023 5-year ACS

foreign_origin

# A tibble: 528 × 6
   variable     estimate   moe county     total                         geometry
   <chr>           <dbl> <dbl> <chr>      <dbl>               <MULTIPOLYGON [°]>
 1 Europe           6116   887 Bernalillo 68910 (((-107.1968 35.21946, -107.196…
 2 Asia            15672   938 Bernalillo 68910 (((-107.1968 35.21946, -107.196…
 3 Eastern_Asia     3185   558 Bernalillo 68910 (((-107.1968 35.21946, -107.196…
 4 China            2094   501 Bernalillo 68910 (((-107.1968 35.21946, -107.196…
 5 Asia_SC          3956   595 Bernalillo 68910 (((-107.1968 35.21946, -107.196…
 6 Asia_SE          6523  1010 Bernalillo 68910 (((-107.1968 35.21946, -107.196…
 7 Vietnam          3390   708 Bernalillo 68910 (((-107.1968 35.21946, -107.196…
 8 Asia_W           1933   614 Bernalillo 68910 (((-107.1968 35.21946, -107.196…
 9 Africa           2668   660 Bernalillo 68910 (((-107.1968 35.21946, -107.196…
10 Oceania           456   148 Bernalillo 68910 (((-107.1968 35.21946, -107.196…
# ℹ 518 more rows
…
